-------------------- Auto-Git Log --------------------
		Thu Feb 27 2020 16:18:03 GMT+0700 (Western Indonesia Time)
------------------------------------------------------

Modified files:


Created files:
* .autogit/logs/log-27-1-2020-15-47-56.txt


Deleted files:


Renamed files:
