-------------------- Auto-Git Log --------------------
		Tue Apr 28 2020 03:41:05 GMT+0700 (Western Indonesia Time)
------------------------------------------------------

Modified files:


Created files:
* .autogit/logs/log-28-3-2020-3-10-59.txt


Deleted files:


Renamed files:
