-------------------- Auto-Git Log --------------------
		Wed Jan 22 2020 09:33:36 GMT+0700 (Western Indonesia Time)
------------------------------------------------------

Modified files:


Created files:
* .autogit/logs/log-22-0-2020-8-55-30.txt


Deleted files:


Renamed files:
