-------------------- Auto-Git Log --------------------
		Thu Feb 27 2020 13:16:44 GMT+0700 (Western Indonesia Time)
------------------------------------------------------

Modified files:


Created files:
* .autogit/logs/log-27-1-2020-12-46-40.txt


Deleted files:


Renamed files:
